0 info it worked if it ends with ok
1 verbose cli [ '/usr/local/bin/node',
1 verbose cli   '/usr/local/bin/npm',
1 verbose cli   'config',
1 verbose cli   'get',
1 verbose cli   'prefix' ]
2 info using npm@4.1.2
3 info using node@v4.5.0
4 verbose stack Error: Failed to replace env in config: ${NPM_TOKEN}
4 verbose stack     at /usr/local/lib/node_modules/npm/lib/config/core.js:418:13
4 verbose stack     at String.replace (native)
4 verbose stack     at envReplace (/usr/local/lib/node_modules/npm/lib/config/core.js:414:12)
4 verbose stack     at parseField (/usr/local/lib/node_modules/npm/lib/config/core.js:392:7)
4 verbose stack     at /usr/local/lib/node_modules/npm/lib/config/core.js:335:17
4 verbose stack     at Array.forEach (native)
4 verbose stack     at Conf.add (/usr/local/lib/node_modules/npm/lib/config/core.js:334:23)
4 verbose stack     at ConfigChain.addString (/usr/local/lib/node_modules/npm/node_modules/config-chain/index.js:244:8)
4 verbose stack     at Conf.<anonymous> (/usr/local/lib/node_modules/npm/lib/config/core.js:322:10)
4 verbose stack     at /usr/local/lib/node_modules/npm/node_modules/graceful-fs/graceful-fs.js:78:16
5 verbose cwd /Users/bhanu/Downloads/web/temp/real_time_game1
6 error Darwin 16.5.0
7 error argv "/usr/local/bin/node" "/usr/local/bin/npm" "config" "get" "prefix"
8 error node v4.5.0
9 error npm  v4.1.2
10 error Failed to replace env in config: ${NPM_TOKEN}
11 error If you need help, you may report this error at:
11 error     <https://github.com/npm/npm/issues>
12 verbose exit [ 1, true ]
